{
  "$schema": "http://json.schemastore.org/template",
  "author": "Umbraco HQ",
  "classifications": [
    "Web",
    "CMS",
    "Umbraco",
    "Package",
    "Plugin"
  ],
  "name": "Umbraco Package",
  "description": "An empty Umbraco package/plugin project ready to get started",
  "groupIdentity": "Umbraco.Templates.UmbracoPackage",
  "identity": "Umbraco.Templates.UmbracoPackage.CSharp",
  "shortName": "umbracopackage",
  "tags": {
    "language": "C#",
    "type": "project"
  },
  "sourceName": "UmbracoPackage",
  "defaultName": "UmbracoPackage1",
  "preferNameDirectory": true,
  "symbols": {
    "Framework": {
      "displayName": "Framework",
      "description": "The target framework for the project.",
      "type": "parameter",
      "datatype": "choice",
      "choices": [
        {
          "displayName": ".NET 5.0",
          "description": "Target net5.0",
          "choice": "net5.0"
        },
        {
          "displayName": ".NET 6.0",
          "description": "Target net6.0",
          "choice": "net6.0"
        }
      ],
      "defaultValue": "net5.0",
      "replaces": "net5.0"
    },
    "UmbracoVersion": {
      "displayName": "Umbraco version",
      "description": "The version of Umbraco.Cms to add as PackageReference.",
      "type": "parameter",
      "datatype": "string",
      "defaultValue": "9.5.2",
      "replaces": "UMBRACO_VERSION_FROM_TEMPLATE"
    },
    "namespaceReplacer": {
      "type": "generated",
      "generator": "regex",
      "dataType": "string",
      "parameters": {
        "source": "name",
        "steps": [
          {
            "regex": "\\s",
            "replacement": "_"
          },
          {
            "regex": "-",
            "replacement": "_"
          },
          {
            "regex": "^[^a-zA-Z_]+",
            "replacement": "_"
          }
        ]
      },
      "replaces": "UmbracoPackage"
    },
    "msbuildReplacer": {
      "type": "generated",
      "generator": "regex",
      "dataType": "string",
      "parameters": {
        "source": "name",
        "steps": [
          {
            "regex": "\\s",
            "replacement": ""
          },
          {
            "regex": "\\.",
            "replacement": ""
          },
          {
            "regex": "-",
            "replacement": ""
          },
          {
            "regex": "^[^a-zA-Z_]+",
            "replacement": ""
          }
        ]
      },
      "replaces": "UmbracoPackageMsBuild"
    }
  },
  "primaryOutputs": [
    {
      "path": "UmbracoPackage.csproj"
    }
  ]
}
